<?xml version="1.0" encoding="utf-8"?>
<!-- Generator: Adobe Illustrator 23.1.1, SVG Export Plug-In . SVG Version: 6.00 Build 0)  -->
<svg version="1.1" id="Layer_1" xmlns="http://www.w3.org/2000/svg" xmlns:xlink="http://www.w3.org/1999/xlink" x="0px" y="0px"
	 viewBox="0 0 27.2 17.8" style="enable-background:new 0 0 27.2 17.8;" xml:space="preserve">
<path d="M18.5,6.6L18,6.1C17.9,6,17.8,6,17.7,6c-0.1,0-0.2,0-0.2,0.1L13.6,10L9.6,6.1C9.6,6,9.5,6,9.4,6C9.3,6,9.2,6,9.1,6.1
	L8.6,6.6C8.6,6.6,8.5,6.7,8.5,6.8c0,0.1,0,0.2,0.1,0.2l4.7,4.7c0.1,0.1,0.1,0.1,0.2,0.1c0.1,0,0.2,0,0.2-0.1L18.5,7
	C18.6,6.9,18.6,6.7,18.5,6.6C18.5,6.6,18.5,6.6,18.5,6.6z"/>
</svg>
