<svg width="16" height="16" viewBox="0 0 16 16" fill="none" xmlns="http://www.w3.org/2000/svg">
<path d="M6.07812 12.7656C6.17188 12.9062 6.3125 12.9531 6.5 12.9531C6.66406 12.9531 6.80469 12.9062 6.92188 12.7656L13.8359 5.875C13.9297 5.78125 14 5.64062 14 5.45312C14 5.28906 13.9297 5.14844 13.8359 5.03125L12.9688 4.1875C12.8516 4.07031 12.7109 4 12.5469 4C12.3828 4 12.2422 4.07031 12.125 4.1875L6.5 9.8125L3.875 7.1875C3.73438 7.07031 3.59375 7 3.42969 7C3.26562 7 3.125 7.07031 3.03125 7.1875L2.16406 8.03125C2.04688 8.14844 2 8.28906 2 8.45312C2 8.64062 2.04688 8.78125 2.16406 8.875L6.07812 12.7656Z" fill="#2AA615"/>
</svg>
