<svg width="10" height="8" viewBox="0 0 10 8" fill="none" xmlns="http://www.w3.org/2000/svg">
<path d="M3.39844 7.82422C3.47656 7.94141 3.59375 7.98047 3.75 7.98047C3.88672 7.98047 4.00391 7.94141 4.10156 7.82422L9.86328 2.08203C9.94141 2.00391 10 1.88672 10 1.73047C10 1.59375 9.94141 1.47656 9.86328 1.37891L9.14062 0.675781C9.04297 0.578125 8.92578 0.519531 8.78906 0.519531C8.65234 0.519531 8.53516 0.578125 8.4375 0.675781L3.75 5.36328L1.5625 3.17578C1.44531 3.07812 1.32812 3.01953 1.19141 3.01953C1.05469 3.01953 0.9375 3.07812 0.859375 3.17578L0.136719 3.87891C0.0390625 3.97656 0 4.09375 0 4.23047C0 4.38672 0.0390625 4.50391 0.136719 4.58203L3.39844 7.82422Z" fill="white"/>
</svg>
