<?xml version="1.0" encoding="UTF-8"?>
<svg width="13px" height="9px" viewBox="0 0 13 9" version="1.1" xmlns="http://www.w3.org/2000/svg" xmlns:xlink="http://www.w3.org/1999/xlink">
    <!-- Generator: Sketch 63.1 (92452) - https://sketch.com -->
    <title>icon-eye</title>
    <desc>Created with Sketch.</desc>
    <g id="Page-1" stroke="none" stroke-width="1" fill="none" fill-rule="evenodd">
        <g id="icon-eye" fill="#00386C" fill-rule="nonzero">
            <path d="M12.5371,4.35938 C12.623,4.53125 12.6875,4.70312 12.6875,4.875 C12.6875,5.06836 12.623,5.24023 12.5371,5.39062 C11.9141,6.4434 11.0762,7.2812 10.0234,7.8828 C8.9492,8.5273 7.76758,8.8281 6.5,8.8281 C5.21094,8.8281 4.05078,8.5273 2.97656,7.8828 C1.90234,7.2812 1.06445,6.4434 0.46289,5.39062 C0.35547,5.24023 0.3125,5.06836 0.3125,4.875 C0.3125,4.70312 0.35547,4.53125 0.46289,4.35938 C1.06445,3.32812 1.90234,2.49023 2.97656,1.86719 C4.05078,1.24414 5.21094,0.92188 6.5,0.92188 C7.76758,0.92188 8.9492,1.24414 10.0234,1.86719 C11.0762,2.49023 11.9141,3.32812 12.5371,4.35938 Z M6.5,7.7969 C7.01562,7.7969 7.50977,7.668 7.96094,7.4102 C8.3906,7.1523 8.7559,6.7871 9.0137,6.3359 C9.2715,5.90625 9.4219,5.41211 9.4219,4.875 C9.4219,4.35938 9.2715,3.86523 9.0137,3.41406 C8.7559,2.98438 8.3906,2.61914 7.96094,2.36133 C7.50977,2.10352 7.01562,1.95312 6.5,1.95312 C5.96289,1.95312 5.46875,2.10352 5.03906,2.36133 C4.58789,2.61914 4.22266,2.98438 3.96484,3.41406 C3.70703,3.86523 3.57812,4.35938 3.57812,4.875 C3.57812,5.41211 3.70703,5.90625 3.96484,6.3359 C4.22266,6.7871 4.58789,7.1523 5.03906,7.4102 C5.46875,7.668 5.96289,7.7969 6.5,7.7969 Z M8.7344,4.875 C8.7344,4.27344 8.498,3.73633 8.0684,3.30664 C7.63867,2.87695 7.10156,2.64062 6.5,2.64062 C6.11328,2.64062 5.76953,2.72656 5.44727,2.89844 C5.70508,2.89844 5.91992,3.00586 6.0918,3.17773 C6.26367,3.34961 6.37109,3.56445 6.37109,3.82227 C6.37109,4.08008 6.26367,4.31641 6.0918,4.48828 C5.91992,4.66016 5.70508,4.74609 5.44727,4.74609 C5.18945,4.74609 4.95312,4.66016 4.78125,4.48828 C4.60938,4.31641 4.52344,4.08008 4.52344,3.82227 C4.35156,4.16602 4.26562,4.50977 4.26562,4.875 C4.26562,5.49805 4.48047,6.0352 4.91016,6.4648 C5.33984,6.8945 5.87695,7.1094 6.5,7.1094 C7.10156,7.1094 7.63867,6.8945 8.0684,6.4648 C8.498,6.0352 8.7344,5.49805 8.7344,4.875 Z" id="Shape"></path>
        </g>
    </g>
</svg>