<svg width="161" height="110" viewBox="0 0 161 110" fill="none" xmlns="http://www.w3.org/2000/svg">
<path d="M90.9712 90.825L70.0732 85.4437V28L90.9712 33.3958V90.825Z" stroke="#003869" stroke-width="3" stroke-linecap="round" stroke-linejoin="round"/>
<path d="M70.0292 85.4437L49 90.825V33.3958L70.0292 28V85.4437Z" stroke="#003869" stroke-width="3" stroke-linecap="round" stroke-linejoin="round"/>
<path d="M111.956 85.4437L90.9707 90.825V33.3958L112 28L111.956 85.4437Z" stroke="#003869" stroke-width="3" stroke-linecap="round" stroke-linejoin="round"/>
<path fill-rule="evenodd" clip-rule="evenodd" d="M107.319 46.2946C107.319 47.0912 107.159 47.8505 106.87 48.5423H106.88L101.485 59.8678L96.0903 48.5423H96.1001C95.811 47.8505 95.6514 47.0912 95.6514 46.2946C95.6514 43.0728 98.2632 40.4609 101.485 40.4609C104.707 40.4609 107.319 43.0728 107.319 46.2946ZM101.485 49.1561C103.103 49.1561 104.414 47.8447 104.414 46.2271C104.414 44.6094 103.103 43.2981 101.485 43.2981C99.8674 43.2981 98.556 44.6094 98.556 46.2271C98.556 47.8447 99.8674 49.1561 101.485 49.1561Z" fill="#003869"/>
<line x1="54.296" y1="65.5487" x2="64.0834" y2="75.3361" stroke="#003869" stroke-width="3"/>
<line x1="64.0831" y1="65.6012" x2="54.2957" y2="75.3886" stroke="#003869" stroke-width="3"/>
<path d="M59.2617 69.0041C59.2617 65.1625 63.883 52.7638 68.683 53.3638C74.683 54.1138 77.5206 57.3099 79.2079 67.0448C80.9698 77.2098 93.9472 79.5224 98.959 76.1394C102.618 73.6698 101.337 63.4254 101.337 59.4008" stroke="#003869" stroke-width="3" stroke-linecap="round" stroke-dasharray="5 5"/>
</svg>
