<svg width="67" height="67" viewBox="0 0 67 67" fill="none" xmlns="http://www.w3.org/2000/svg">
<path d="M43.9707 64.825L23.0728 59.4437V2L43.9707 7.39583V64.825Z" stroke="#003869" stroke-width="3" stroke-linecap="round" stroke-linejoin="round"/>
<path d="M23.0292 59.4437L2 64.825V7.39583L23.0292 2V59.4437Z" stroke="#003869" stroke-width="3" stroke-linecap="round" stroke-linejoin="round"/>
<path d="M64.9564 59.4437L43.9709 64.825V7.39583L65.0001 2L64.9564 59.4437Z" stroke="#003869" stroke-width="3" stroke-linecap="round" stroke-linejoin="round"/>
<path fill-rule="evenodd" clip-rule="evenodd" d="M60.3192 20.2946C60.3192 21.0912 60.1595 21.8505 59.8704 22.5423H59.8803L54.4856 33.8678L49.0907 22.5423H49.1006C48.8115 21.8505 48.6519 21.0912 48.6519 20.2946C48.6519 17.0728 51.2637 14.4609 54.4855 14.4609C57.7074 14.4609 60.3192 17.0728 60.3192 20.2946ZM54.4855 23.1561C56.1031 23.1561 57.4145 21.8447 57.4145 20.2271C57.4145 18.6094 56.1031 17.2981 54.4855 17.2981C52.8679 17.2981 51.5565 18.6094 51.5565 20.2271C51.5565 21.8447 52.8679 23.1561 54.4855 23.1561Z" fill="#003869"/>
<line x1="7.29626" y1="39.5487" x2="17.0837" y2="49.3361" stroke="#003869" stroke-width="3"/>
<line x1="17.0836" y1="39.6012" x2="7.29619" y2="49.3886" stroke="#003869" stroke-width="3"/>
<path d="M12.2617 43.0041C12.2617 39.1625 16.883 26.7638 21.683 27.3638C27.683 28.1138 30.5206 31.3099 32.2079 41.0448C33.9698 51.2098 46.9472 53.5224 51.959 50.1394C55.6177 47.6698 54.3371 37.4254 54.3371 33.4008" stroke="#003869" stroke-width="3" stroke-linecap="round" stroke-dasharray="5 5"/>
</svg>
