<svg width="17" height="16" viewBox="0 0 17 16" fill="none" xmlns="http://www.w3.org/2000/svg">
<path d="M3.11308 16H13.5939C15.4215 16 16.3535 15.0771 16.3535 13.2678V2.72302C16.3535 0.922901 15.4215 0 13.5939 0H3.11308C1.28555 0 0.353516 0.913764 0.353516 2.72302V13.2678C0.353516 15.0771 1.28555 16 3.11308 16ZM3.16791 14.4923C2.32724 14.4923 1.86123 14.0445 1.86123 13.1673V2.82353C1.86123 1.94632 2.32724 1.50771 3.16791 1.50771H13.5391C14.3706 1.50771 14.8458 1.94632 14.8458 2.82353V13.1673C14.8458 14.0445 14.3706 14.4923 13.5391 14.4923H3.16791ZM5.44318 11.6413C5.64421 11.6413 5.82696 11.5682 5.95489 11.422L8.34895 9.01885L10.7521 11.422C10.8892 11.5591 11.0628 11.6413 11.273 11.6413C11.675 11.6413 12.004 11.3124 12.004 10.9103C12.004 10.7093 11.9218 10.5357 11.7847 10.3986L9.3815 7.99543L11.7938 5.5831C11.94 5.42776 12.0131 5.27242 12.0131 5.07139C12.0131 4.66933 11.6842 4.34951 11.2821 4.34951C11.0902 4.34951 10.9349 4.42262 10.7796 4.57796L8.34895 6.98115L5.94575 4.57796C5.80868 4.44089 5.64421 4.36779 5.44318 4.36779C5.03198 4.36779 4.71217 4.67847 4.71217 5.08053C4.71217 5.28155 4.79441 5.45517 4.93147 5.59223L7.33467 7.99543L4.93147 10.4078C4.79441 10.5357 4.71217 10.7184 4.71217 10.9103C4.71217 11.3124 5.03198 11.6413 5.44318 11.6413Z" fill="white"/>
</svg>
