<svg width="32" height="39" viewBox="0 0 32 39" fill="none" xmlns="http://www.w3.org/2000/svg">
<path d="M15.6266 25.2098C20.9193 25.2098 25.2098 20.9193 25.2098 15.6266C25.2098 10.334 20.9193 6.04346 15.6266 6.04346C10.334 6.04346 6.04346 10.334 6.04346 15.6266C6.04346 20.9193 10.334 25.2098 15.6266 25.2098Z" fill="white"/>
<path d="M15.6266 18.7809C17.2834 18.7809 18.6266 17.4378 18.6266 15.7809C18.6266 14.1241 17.2834 12.7809 15.6266 12.7809C13.9697 12.7809 12.6266 14.1241 12.6266 15.7809C12.6266 17.4378 13.9697 18.7809 15.6266 18.7809Z" fill="#0F3972"/>
<path d="M15.6266 0C6.99314 0 0 6.99313 0 15.6266C0 22.4471 9.78463 33.4692 13.8712 37.7859C14.8208 38.7932 16.4324 38.7932 17.3821 37.7859C21.4686 33.498 31.2533 22.4759 31.2533 15.6266C31.2533 6.99313 24.2601 0 15.6266 0ZM15.6266 24.2889C10.8207 24.2889 6.96436 20.4038 6.96436 15.6266C6.96436 10.8494 10.8494 6.96435 15.6266 6.96435C20.4326 6.96435 24.2889 10.8494 24.2889 15.6266C24.2889 20.4038 20.4326 24.2889 15.6266 24.2889Z" fill="#0F3972"/>
</svg>
